tb_final_project/sim/log/test_pstrb.log
# vsim -debugDB -l test_pstrb.log -voptargs="+acc" -assertdebug -c test_bench -do "log -r /*;run -all;" 
# Start time: 20:36:59 on Jun 09,2025
# ** Note: (vsim-3813) Design is being optimized due to module recompilation...
# ** Note: (vsim-8611) Generating debug db.
# ** Warning: (vopt-10587) Some optimizations are turned off because the +acc switch is in effect. This will cause your simulation to run slowly. Please use -access/-debug to maintain needed visibility.
# ** Note: (vsim-12126) Error and warning message counts have been restored: Errors=0, Warnings=1.
# //  Questa Intel Starter FPGA Edition-64
# //  Version 2023.3 linux_x86_64 Jul 17 2023
# //
# //  Copyright 1991-2023 Mentor Graphics Corporation
# //  All Rights Reserved.
# //
# //  QuestaSim and its associated documentation contain trade
# //  secrets and commercial or financial information that are the property of
# //  Mentor Graphics Corporation and are privileged, confidential,
# //  and exempt from disclosure under the Freedom of Information Act,
# //  5 U.S.C. Section 552. Furthermore, this information
# //  is prohibited from disclosure under the Trade Secrets Act,
# //  18 U.S.C. Section 1905.
# //
# Loading work.test_bench(fast)
# Loading work.top(fast)
# Loading work.register(fast)
# Loading work.apb_slave(fast)
# Loading work.counter_control(fast)
# Loading work.counter(fast)
# Loading work.golden_model_test(fast)
# ** Note: (vsim-8900) Creating design debug database vsim.dbg.
# log -r /*
# run -all
# ==============================================
# ============== TEST CASE: PSTRB ==============
# ==============================================
# ---------------------------------------------------------------------------------------------------------------
# | t=  1900, PASS: | pstrb = 4'b0011 | register addr = 12h000 | write 32'h00000302 | read EXP: 32'h00000302, ACT: 32'h00000302 |
# ---------------------------------------------------------------------------------------------------------------
# ---------------------------------------------------------------------------------------------------------------
# | t=  3500, PASS: | pstrb = 4'b0010 | register addr = 12h000 | write 32'h00000200 | read EXP: 32'h00000202, ACT: 32'h00000202 |
# ---------------------------------------------------------------------------------------------------------------
# ---------------------------------------------------------------------------------------------------------------
# | t=  5100, PASS: | pstrb = 4'b0001 | register addr = 12h000 | write 32'h00000300 | read EXP: 32'h00000200, ACT: 32'h00000200 |
# ---------------------------------------------------------------------------------------------------------------
# ---------------------------------------------------------------------------------------------------------------
# | t=  6700, PASS: | pstrb = 4'b0000 | register addr = 12h000 | write 32'h00000101 | read EXP: 32'h00000200, ACT: 32'h00000200 |
# ---------------------------------------------------------------------------------------------------------------
# ---------------------------------------------------------------------------------------------------------------
# | t=  9100, PASS: | pstrb = 4'b1111 | register addr = 12h004 | write 32'hffffffff | read EXP: 32'hffffffff, ACT: 32'hffffffff |
# ---------------------------------------------------------------------------------------------------------------
# ---------------------------------------------------------------------------------------------------------------
# | t= 10700, PASS: | pstrb = 4'b1110 | register addr = 12h004 | write 32'heeeeeeee | read EXP: 32'heeeeeeff, ACT: 32'heeeeeeff |
# ---------------------------------------------------------------------------------------------------------------
# ---------------------------------------------------------------------------------------------------------------
# | t= 12300, PASS: | pstrb = 4'b1101 | register addr = 12h004 | write 32'hdddddddd | read EXP: 32'hddddeedd, ACT: 32'hddddeedd |
# ---------------------------------------------------------------------------------------------------------------
# ---------------------------------------------------------------------------------------------------------------
# | t= 13900, PASS: | pstrb = 4'b1100 | register addr = 12h004 | write 32'hcccccccc | read EXP: 32'hcccceedd, ACT: 32'hcccceedd |
# ---------------------------------------------------------------------------------------------------------------
# ---------------------------------------------------------------------------------------------------------------
# | t= 15500, PASS: | pstrb = 4'b1011 | register addr = 12h004 | write 32'hbbbbbbbb | read EXP: 32'hbbccbbbb, ACT: 32'hbbccbbbb |
# ---------------------------------------------------------------------------------------------------------------
# ---------------------------------------------------------------------------------------------------------------
# | t= 17100, PASS: | pstrb = 4'b1010 | register addr = 12h004 | write 32'haaaaaaaa | read EXP: 32'haaccaabb, ACT: 32'haaccaabb |
# ---------------------------------------------------------------------------------------------------------------
# ---------------------------------------------------------------------------------------------------------------
# | t= 18700, PASS: | pstrb = 4'b1001 | register addr = 12h004 | write 32'h99999999 | read EXP: 32'h99ccaa99, ACT: 32'h99ccaa99 |
# ---------------------------------------------------------------------------------------------------------------
# ---------------------------------------------------------------------------------------------------------------
# | t= 20300, PASS: | pstrb = 4'b1000 | register addr = 12h004 | write 32'h88888888 | read EXP: 32'h88ccaa99, ACT: 32'h88ccaa99 |
# ---------------------------------------------------------------------------------------------------------------
# ---------------------------------------------------------------------------------------------------------------
# | t= 21900, PASS: | pstrb = 4'b0111 | register addr = 12h004 | write 32'h77777777 | read EXP: 32'h88777777, ACT: 32'h88777777 |
# ---------------------------------------------------------------------------------------------------------------
# ---------------------------------------------------------------------------------------------------------------
# | t= 23500, PASS: | pstrb = 4'b0110 | register addr = 12h004 | write 32'h66666666 | read EXP: 32'h88666677, ACT: 32'h88666677 |
# ---------------------------------------------------------------------------------------------------------------
# ---------------------------------------------------------------------------------------------------------------
# | t= 25100, PASS: | pstrb = 4'b0101 | register addr = 12h004 | write 32'h55555555 | read EXP: 32'h88556655, ACT: 32'h88556655 |
# ---------------------------------------------------------------------------------------------------------------
# ---------------------------------------------------------------------------------------------------------------
# | t= 26700, PASS: | pstrb = 4'b0100 | register addr = 12h004 | write 32'h44444444 | read EXP: 32'h88446655, ACT: 32'h88446655 |
# ---------------------------------------------------------------------------------------------------------------
# ---------------------------------------------------------------------------------------------------------------
# | t= 28300, PASS: | pstrb = 4'b0011 | register addr = 12h004 | write 32'h33333333 | read EXP: 32'h88443333, ACT: 32'h88443333 |
# ---------------------------------------------------------------------------------------------------------------
# ---------------------------------------------------------------------------------------------------------------
# | t= 29900, PASS: | pstrb = 4'b0010 | register addr = 12h004 | write 32'h22222222 | read EXP: 32'h88442233, ACT: 32'h88442233 |
# ---------------------------------------------------------------------------------------------------------------
# ---------------------------------------------------------------------------------------------------------------
# | t= 31500, PASS: | pstrb = 4'b0001 | register addr = 12h004 | write 32'h11111111 | read EXP: 32'h88442211, ACT: 32'h88442211 |
# ---------------------------------------------------------------------------------------------------------------
# ---------------------------------------------------------------------------------------------------------------
# | t= 33100, PASS: | pstrb = 4'b0000 | register addr = 12h004 | write 32'h00000000 | read EXP: 32'h88442211, ACT: 32'h88442211 |
# ---------------------------------------------------------------------------------------------------------------
# ---------------------------------------------------------------------------------------------------------------
# | t= 34700, PASS: | pstrb = 4'b1111 | register addr = 12h008 | write 32'hffffffff | read EXP: 32'hffffffff, ACT: 32'hffffffff |
# ---------------------------------------------------------------------------------------------------------------
# ---------------------------------------------------------------------------------------------------------------
# | t= 36300, PASS: | pstrb = 4'b1110 | register addr = 12h008 | write 32'heeeeeeee | read EXP: 32'heeeeeeff, ACT: 32'heeeeeeff |
# ---------------------------------------------------------------------------------------------------------------
# ---------------------------------------------------------------------------------------------------------------
# | t= 37900, PASS: | pstrb = 4'b1101 | register addr = 12h008 | write 32'hdddddddd | read EXP: 32'hddddeedd, ACT: 32'hddddeedd |
# ---------------------------------------------------------------------------------------------------------------
# ---------------------------------------------------------------------------------------------------------------
# | t= 39500, PASS: | pstrb = 4'b1100 | register addr = 12h008 | write 32'hcccccccc | read EXP: 32'hcccceedd, ACT: 32'hcccceedd |
# ---------------------------------------------------------------------------------------------------------------
# ---------------------------------------------------------------------------------------------------------------
# | t= 41100, PASS: | pstrb = 4'b1011 | register addr = 12h008 | write 32'hbbbbbbbb | read EXP: 32'hbbccbbbb, ACT: 32'hbbccbbbb |
# ---------------------------------------------------------------------------------------------------------------
# ---------------------------------------------------------------------------------------------------------------
# | t= 42700, PASS: | pstrb = 4'b1010 | register addr = 12h008 | write 32'haaaaaaaa | read EXP: 32'haaccaabb, ACT: 32'haaccaabb |
# ---------------------------------------------------------------------------------------------------------------
# ---------------------------------------------------------------------------------------------------------------
# | t= 44300, PASS: | pstrb = 4'b1001 | register addr = 12h008 | write 32'h99999999 | read EXP: 32'h99ccaa99, ACT: 32'h99ccaa99 |
# ---------------------------------------------------------------------------------------------------------------
# ---------------------------------------------------------------------------------------------------------------
# | t= 45900, PASS: | pstrb = 4'b1000 | register addr = 12h008 | write 32'h88888888 | read EXP: 32'h88ccaa99, ACT: 32'h88ccaa99 |
# ---------------------------------------------------------------------------------------------------------------
# ---------------------------------------------------------------------------------------------------------------
# | t= 47500, PASS: | pstrb = 4'b0111 | register addr = 12h008 | write 32'h77777777 | read EXP: 32'h88777777, ACT: 32'h88777777 |
# ---------------------------------------------------------------------------------------------------------------
# ---------------------------------------------------------------------------------------------------------------
# | t= 49100, PASS: | pstrb = 4'b0110 | register addr = 12h008 | write 32'h66666666 | read EXP: 32'h88666677, ACT: 32'h88666677 |
# ---------------------------------------------------------------------------------------------------------------
# ---------------------------------------------------------------------------------------------------------------
# | t= 50700, PASS: | pstrb = 4'b0101 | register addr = 12h008 | write 32'h55555555 | read EXP: 32'h88556655, ACT: 32'h88556655 |
# ---------------------------------------------------------------------------------------------------------------
# ---------------------------------------------------------------------------------------------------------------
# | t= 52300, PASS: | pstrb = 4'b0100 | register addr = 12h008 | write 32'h44444444 | read EXP: 32'h88446655, ACT: 32'h88446655 |
# ---------------------------------------------------------------------------------------------------------------
# ---------------------------------------------------------------------------------------------------------------
# | t= 53900, PASS: | pstrb = 4'b0011 | register addr = 12h008 | write 32'h33333333 | read EXP: 32'h88443333, ACT: 32'h88443333 |
# ---------------------------------------------------------------------------------------------------------------
# ---------------------------------------------------------------------------------------------------------------
# | t= 55500, PASS: | pstrb = 4'b0010 | register addr = 12h008 | write 32'h22222222 | read EXP: 32'h88442233, ACT: 32'h88442233 |
# ---------------------------------------------------------------------------------------------------------------
# ---------------------------------------------------------------------------------------------------------------
# | t= 57100, PASS: | pstrb = 4'b0001 | register addr = 12h008 | write 32'h11111111 | read EXP: 32'h88442211, ACT: 32'h88442211 |
# ---------------------------------------------------------------------------------------------------------------
# ---------------------------------------------------------------------------------------------------------------
# | t= 58700, PASS: | pstrb = 4'b0000 | register addr = 12h008 | write 32'h00000000 | read EXP: 32'h88442211, ACT: 32'h88442211 |
# ---------------------------------------------------------------------------------------------------------------
# ---------------------------------------------------------------------------------------------------------------
# | t= 60300, PASS: | pstrb = 4'b1111 | register addr = 12h00c | write 32'hffffffff | read EXP: 32'hffffffff, ACT: 32'hffffffff |
# ---------------------------------------------------------------------------------------------------------------
# ---------------------------------------------------------------------------------------------------------------
# | t= 61900, PASS: | pstrb = 4'b1110 | register addr = 12h00c | write 32'heeeeeeee | read EXP: 32'heeeeeeff, ACT: 32'heeeeeeff |
# ---------------------------------------------------------------------------------------------------------------
# ---------------------------------------------------------------------------------------------------------------
# | t= 63500, PASS: | pstrb = 4'b1101 | register addr = 12h00c | write 32'hdddddddd | read EXP: 32'hddddeedd, ACT: 32'hddddeedd |
# ---------------------------------------------------------------------------------------------------------------
# ---------------------------------------------------------------------------------------------------------------
# | t= 65100, PASS: | pstrb = 4'b1100 | register addr = 12h00c | write 32'hcccccccc | read EXP: 32'hcccceedd, ACT: 32'hcccceedd |
# ---------------------------------------------------------------------------------------------------------------
# ---------------------------------------------------------------------------------------------------------------
# | t= 66700, PASS: | pstrb = 4'b1011 | register addr = 12h00c | write 32'hbbbbbbbb | read EXP: 32'hbbccbbbb, ACT: 32'hbbccbbbb |
# ---------------------------------------------------------------------------------------------------------------
# ---------------------------------------------------------------------------------------------------------------
# | t= 68300, PASS: | pstrb = 4'b1010 | register addr = 12h00c | write 32'haaaaaaaa | read EXP: 32'haaccaabb, ACT: 32'haaccaabb |
# ---------------------------------------------------------------------------------------------------------------
# ---------------------------------------------------------------------------------------------------------------
# | t= 69900, PASS: | pstrb = 4'b1001 | register addr = 12h00c | write 32'h99999999 | read EXP: 32'h99ccaa99, ACT: 32'h99ccaa99 |
# ---------------------------------------------------------------------------------------------------------------
# ---------------------------------------------------------------------------------------------------------------
# | t= 71500, PASS: | pstrb = 4'b1000 | register addr = 12h00c | write 32'h88888888 | read EXP: 32'h88ccaa99, ACT: 32'h88ccaa99 |
# ---------------------------------------------------------------------------------------------------------------
# ---------------------------------------------------------------------------------------------------------------
# | t= 73100, PASS: | pstrb = 4'b0111 | register addr = 12h00c | write 32'h77777777 | read EXP: 32'h88777777, ACT: 32'h88777777 |
# ---------------------------------------------------------------------------------------------------------------
# ---------------------------------------------------------------------------------------------------------------
# | t= 74700, PASS: | pstrb = 4'b0110 | register addr = 12h00c | write 32'h66666666 | read EXP: 32'h88666677, ACT: 32'h88666677 |
# ---------------------------------------------------------------------------------------------------------------
# ---------------------------------------------------------------------------------------------------------------
# | t= 76300, PASS: | pstrb = 4'b0101 | register addr = 12h00c | write 32'h55555555 | read EXP: 32'h88556655, ACT: 32'h88556655 |
# ---------------------------------------------------------------------------------------------------------------
# ---------------------------------------------------------------------------------------------------------------
# | t= 77900, PASS: | pstrb = 4'b0100 | register addr = 12h00c | write 32'h44444444 | read EXP: 32'h88446655, ACT: 32'h88446655 |
# ---------------------------------------------------------------------------------------------------------------
# ---------------------------------------------------------------------------------------------------------------
# | t= 79500, PASS: | pstrb = 4'b0011 | register addr = 12h00c | write 32'h33333333 | read EXP: 32'h88443333, ACT: 32'h88443333 |
# ---------------------------------------------------------------------------------------------------------------
# ---------------------------------------------------------------------------------------------------------------
# | t= 81100, PASS: | pstrb = 4'b0010 | register addr = 12h00c | write 32'h22222222 | read EXP: 32'h88442233, ACT: 32'h88442233 |
# ---------------------------------------------------------------------------------------------------------------
# ---------------------------------------------------------------------------------------------------------------
# | t= 82700, PASS: | pstrb = 4'b0001 | register addr = 12h00c | write 32'h11111111 | read EXP: 32'h88442211, ACT: 32'h88442211 |
# ---------------------------------------------------------------------------------------------------------------
# ---------------------------------------------------------------------------------------------------------------
# | t= 84300, PASS: | pstrb = 4'b0000 | register addr = 12h00c | write 32'h00000000 | read EXP: 32'h88442211, ACT: 32'h88442211 |
# ---------------------------------------------------------------------------------------------------------------
# ---------------------------------------------------------------------------------------------------------------
# | t= 85900, PASS: | pstrb = 4'b1111 | register addr = 12h010 | write 32'hffffffff | read EXP: 32'hffffffff, ACT: 32'hffffffff |
# ---------------------------------------------------------------------------------------------------------------
# ---------------------------------------------------------------------------------------------------------------
# | t= 87500, PASS: | pstrb = 4'b1110 | register addr = 12h010 | write 32'heeeeeeee | read EXP: 32'heeeeeeff, ACT: 32'heeeeeeff |
# ---------------------------------------------------------------------------------------------------------------
# ---------------------------------------------------------------------------------------------------------------
# | t= 89100, PASS: | pstrb = 4'b1101 | register addr = 12h010 | write 32'hdddddddd | read EXP: 32'hddddeedd, ACT: 32'hddddeedd |
# ---------------------------------------------------------------------------------------------------------------
# ---------------------------------------------------------------------------------------------------------------
# | t= 90700, PASS: | pstrb = 4'b1100 | register addr = 12h010 | write 32'hcccccccc | read EXP: 32'hcccceedd, ACT: 32'hcccceedd |
# ---------------------------------------------------------------------------------------------------------------
# ---------------------------------------------------------------------------------------------------------------
# | t= 92300, PASS: | pstrb = 4'b1011 | register addr = 12h010 | write 32'hbbbbbbbb | read EXP: 32'hbbccbbbb, ACT: 32'hbbccbbbb |
# ---------------------------------------------------------------------------------------------------------------
# ---------------------------------------------------------------------------------------------------------------
# | t= 93900, PASS: | pstrb = 4'b1010 | register addr = 12h010 | write 32'haaaaaaaa | read EXP: 32'haaccaabb, ACT: 32'haaccaabb |
# ---------------------------------------------------------------------------------------------------------------
# ---------------------------------------------------------------------------------------------------------------
# | t= 95500, PASS: | pstrb = 4'b1001 | register addr = 12h010 | write 32'h99999999 | read EXP: 32'h99ccaa99, ACT: 32'h99ccaa99 |
# ---------------------------------------------------------------------------------------------------------------
# ---------------------------------------------------------------------------------------------------------------
# | t= 97100, PASS: | pstrb = 4'b1000 | register addr = 12h010 | write 32'h88888888 | read EXP: 32'h88ccaa99, ACT: 32'h88ccaa99 |
# ---------------------------------------------------------------------------------------------------------------
# ---------------------------------------------------------------------------------------------------------------
# | t= 98700, PASS: | pstrb = 4'b0111 | register addr = 12h010 | write 32'h77777777 | read EXP: 32'h88777777, ACT: 32'h88777777 |
# ---------------------------------------------------------------------------------------------------------------
# ---------------------------------------------------------------------------------------------------------------
# | t=100300, PASS: | pstrb = 4'b0110 | register addr = 12h010 | write 32'h66666666 | read EXP: 32'h88666677, ACT: 32'h88666677 |
# ---------------------------------------------------------------------------------------------------------------
# ---------------------------------------------------------------------------------------------------------------
# | t=101900, PASS: | pstrb = 4'b0101 | register addr = 12h010 | write 32'h55555555 | read EXP: 32'h88556655, ACT: 32'h88556655 |
# ---------------------------------------------------------------------------------------------------------------
# ---------------------------------------------------------------------------------------------------------------
# | t=103500, PASS: | pstrb = 4'b0100 | register addr = 12h010 | write 32'h44444444 | read EXP: 32'h88446655, ACT: 32'h88446655 |
# ---------------------------------------------------------------------------------------------------------------
# ---------------------------------------------------------------------------------------------------------------
# | t=105100, PASS: | pstrb = 4'b0011 | register addr = 12h010 | write 32'h33333333 | read EXP: 32'h88443333, ACT: 32'h88443333 |
# ---------------------------------------------------------------------------------------------------------------
# ---------------------------------------------------------------------------------------------------------------
# | t=106700, PASS: | pstrb = 4'b0010 | register addr = 12h010 | write 32'h22222222 | read EXP: 32'h88442233, ACT: 32'h88442233 |
# ---------------------------------------------------------------------------------------------------------------
# ---------------------------------------------------------------------------------------------------------------
# | t=108300, PASS: | pstrb = 4'b0001 | register addr = 12h010 | write 32'h11111111 | read EXP: 32'h88442211, ACT: 32'h88442211 |
# ---------------------------------------------------------------------------------------------------------------
# ---------------------------------------------------------------------------------------------------------------
# | t=109900, PASS: | pstrb = 4'b0000 | register addr = 12h010 | write 32'h00000000 | read EXP: 32'h88442211, ACT: 32'h88442211 |
# ---------------------------------------------------------------------------------------------------------------
# ---------------------------------------------------------------------------------------------------------------
# | t=111500, PASS: | pstrb = 4'b0001 | register addr = 12h014 | write 32'h00000001 | read EXP: 32'h00000001, ACT: 32'h00000001 |
# ---------------------------------------------------------------------------------------------------------------
# ---------------------------------------------------------------------------------------------------------------
# | t=113100, PASS: | pstrb = 4'b0000 | register addr = 12h014 | write 32'h00000000 | read EXP: 32'h00000001, ACT: 32'h00000001 |
# ---------------------------------------------------------------------------------------------------------------
# ---------------------------------------------------------------------------------------------------------------
# | t=114700, PASS: | pstrb = 4'b0001 | register addr = 12h018 | write 32'h00000000 | read EXP: 32'h00000001, ACT: 32'h00000001 |
# ---------------------------------------------------------------------------------------------------------------
# ---------------------------------------------------------------------------------------------------------------
# | t=116300, PASS: | pstrb = 4'b0000 | register addr = 12h018 | write 32'h00000001 | read EXP: 32'h00000001, ACT: 32'h00000001 |
# ---------------------------------------------------------------------------------------------------------------
# ---------------------------------------------------------------------------------------------------------------
# | t=117900, PASS: | pstrb = 4'b0001 | register addr = 12h01c | write 32'h00000001 | read EXP: 32'h00000001, ACT: 32'h00000001 |
# ---------------------------------------------------------------------------------------------------------------
# ---------------------------------------------------------------------------------------------------------------
# | t=119500, PASS: | pstrb = 4'b0000 | register addr = 12h01c | write 32'h00000000 | read EXP: 32'h00000001, ACT: 32'h00000001 |
# ---------------------------------------------------------------------------------------------------------------
# ==============================================
# ================ PASS: PSTRB =================
# ==============================================
# ** Note: $finish    : ../tb/test_bench.v(311)
#    Time: 119600 ns  Iteration: 0  Instance: /test_bench
# End time: 20:37:00 on Jun 09,2025, Elapsed time: 0:00:01
# Errors: 0, Warnings: 1
