tb_final_project/sim/log/test_reg_rw.log
# vsim -debugDB -l test_reg_rw.log -voptargs="+acc" -assertdebug -c test_bench -do "log -r /*;run -all;" 
# Start time: 20:36:50 on Jun 09,2025
# ** Note: (vsim-3813) Design is being optimized due to module recompilation...
# ** Note: (vsim-8611) Generating debug db.
# ** Warning: (vopt-10587) Some optimizations are turned off because the +acc switch is in effect. This will cause your simulation to run slowly. Please use -access/-debug to maintain needed visibility.
# ** Note: (vsim-12126) Error and warning message counts have been restored: Errors=0, Warnings=1.
# //  Questa Intel Starter FPGA Edition-64
# //  Version 2023.3 linux_x86_64 Jul 17 2023
# //
# //  Copyright 1991-2023 Mentor Graphics Corporation
# //  All Rights Reserved.
# //
# //  QuestaSim and its associated documentation contain trade
# //  secrets and commercial or financial information that are the property of
# //  Mentor Graphics Corporation and are privileged, confidential,
# //  and exempt from disclosure under the Freedom of Information Act,
# //  5 U.S.C. Section 552. Furthermore, this information
# //  is prohibited from disclosure under the Trade Secrets Act,
# //  18 U.S.C. Section 1905.
# //
# Loading work.test_bench(fast)
# Loading work.top(fast)
# Loading work.register(fast)
# Loading work.apb_slave(fast)
# Loading work.counter_control(fast)
# Loading work.counter(fast)
# Loading work.golden_model_test(fast)
# ** Note: (vsim-8900) Creating design debug database vsim.dbg.
# log -r /*
# run -all
# ==============================================
# ======== TEST CASE: READ/WRITE VALUE =========
# ==============================================
# ---------------------------------------------------------------------------------------------------------------
# | t=  2100, PASS: | pstrb = 4'b1111 | register addr = 12h000 | write 32'h00000000 | read EXP: 32'h00000000, ACT: 32'h00000000 |
# ---------------------------------------------------------------------------------------------------------------
# ---------------------------------------------------------------------------------------------------------------
# | t=  3900, PASS: | pstrb = 4'b1111 | register addr = 12h000 | write 32'hffffffff | read EXP: 32'h00000100, ACT: 32'h00000100 |
# ---------------------------------------------------------------------------------------------------------------
# ---------------------------------------------------------------------------------------------------------------
# | t=  5700, PASS: | pstrb = 4'b1111 | register addr = 12h000 | write 32'h55555555 | read EXP: 32'h00000501, ACT: 32'h00000501 |
# ---------------------------------------------------------------------------------------------------------------
# ---------------------------------------------------------------------------------------------------------------
# | t=  7500, PASS: | pstrb = 4'b1111 | register addr = 12h000 | write 32'haaaaaaaa | read EXP: 32'h00000100, ACT: 32'h00000100 |
# ---------------------------------------------------------------------------------------------------------------
# ---------------------------------------------------------------------------------------------------------------
# | t=  9300, PASS: | pstrb = 4'b1111 | register addr = 12h000 | write 32'ha55aa55a | read EXP: 32'h00000502, ACT: 32'h00000502 |
# ---------------------------------------------------------------------------------------------------------------
# ---------------------------------------------------------------------------------------------------------------
# | t= 11100, PASS: | pstrb = 4'b1111 | register addr = 12h004 | write 32'h00000000 | read EXP: 32'h00000000, ACT: 32'h00000000 |
# ---------------------------------------------------------------------------------------------------------------
# ---------------------------------------------------------------------------------------------------------------
# | t= 12900, PASS: | pstrb = 4'b1111 | register addr = 12h004 | write 32'hffffffff | read EXP: 32'hffffffff, ACT: 32'hffffffff |
# ---------------------------------------------------------------------------------------------------------------
# ---------------------------------------------------------------------------------------------------------------
# | t= 14700, PASS: | pstrb = 4'b1111 | register addr = 12h004 | write 32'h55555555 | read EXP: 32'h55555555, ACT: 32'h55555555 |
# ---------------------------------------------------------------------------------------------------------------
# ---------------------------------------------------------------------------------------------------------------
# | t= 16500, PASS: | pstrb = 4'b1111 | register addr = 12h004 | write 32'haaaaaaaa | read EXP: 32'haaaaaaaa, ACT: 32'haaaaaaaa |
# ---------------------------------------------------------------------------------------------------------------
# ---------------------------------------------------------------------------------------------------------------
# | t= 18300, PASS: | pstrb = 4'b1111 | register addr = 12h004 | write 32'ha55aa55a | read EXP: 32'ha55aa55a, ACT: 32'ha55aa55a |
# ---------------------------------------------------------------------------------------------------------------
# ---------------------------------------------------------------------------------------------------------------
# | t= 20100, PASS: | pstrb = 4'b1111 | register addr = 12h008 | write 32'h00000000 | read EXP: 32'h00000000, ACT: 32'h00000000 |
# ---------------------------------------------------------------------------------------------------------------
# ---------------------------------------------------------------------------------------------------------------
# | t= 21900, PASS: | pstrb = 4'b1111 | register addr = 12h008 | write 32'hffffffff | read EXP: 32'hffffffff, ACT: 32'hffffffff |
# ---------------------------------------------------------------------------------------------------------------
# ---------------------------------------------------------------------------------------------------------------
# | t= 23700, PASS: | pstrb = 4'b1111 | register addr = 12h008 | write 32'h55555555 | read EXP: 32'h55555555, ACT: 32'h55555555 |
# ---------------------------------------------------------------------------------------------------------------
# ---------------------------------------------------------------------------------------------------------------
# | t= 25500, PASS: | pstrb = 4'b1111 | register addr = 12h008 | write 32'haaaaaaaa | read EXP: 32'haaaaaaaa, ACT: 32'haaaaaaaa |
# ---------------------------------------------------------------------------------------------------------------
# ---------------------------------------------------------------------------------------------------------------
# | t= 27300, PASS: | pstrb = 4'b1111 | register addr = 12h008 | write 32'ha55aa55a | read EXP: 32'ha55aa55a, ACT: 32'ha55aa55a |
# ---------------------------------------------------------------------------------------------------------------
# ---------------------------------------------------------------------------------------------------------------
# | t= 29100, PASS: | pstrb = 4'b1111 | register addr = 12h00c | write 32'h00000000 | read EXP: 32'h00000000, ACT: 32'h00000000 |
# ---------------------------------------------------------------------------------------------------------------
# ---------------------------------------------------------------------------------------------------------------
# | t= 30900, PASS: | pstrb = 4'b1111 | register addr = 12h00c | write 32'hffffffff | read EXP: 32'hffffffff, ACT: 32'hffffffff |
# ---------------------------------------------------------------------------------------------------------------
# ---------------------------------------------------------------------------------------------------------------
# | t= 32700, PASS: | pstrb = 4'b1111 | register addr = 12h00c | write 32'h55555555 | read EXP: 32'h55555555, ACT: 32'h55555555 |
# ---------------------------------------------------------------------------------------------------------------
# ---------------------------------------------------------------------------------------------------------------
# | t= 34500, PASS: | pstrb = 4'b1111 | register addr = 12h00c | write 32'haaaaaaaa | read EXP: 32'haaaaaaaa, ACT: 32'haaaaaaaa |
# ---------------------------------------------------------------------------------------------------------------
# ---------------------------------------------------------------------------------------------------------------
# | t= 36300, PASS: | pstrb = 4'b1111 | register addr = 12h00c | write 32'ha55aa55a | read EXP: 32'ha55aa55a, ACT: 32'ha55aa55a |
# ---------------------------------------------------------------------------------------------------------------
# ---------------------------------------------------------------------------------------------------------------
# | t= 38100, PASS: | pstrb = 4'b1111 | register addr = 12h010 | write 32'h00000000 | read EXP: 32'h00000000, ACT: 32'h00000000 |
# ---------------------------------------------------------------------------------------------------------------
# ---------------------------------------------------------------------------------------------------------------
# | t= 39900, PASS: | pstrb = 4'b1111 | register addr = 12h010 | write 32'hffffffff | read EXP: 32'hffffffff, ACT: 32'hffffffff |
# ---------------------------------------------------------------------------------------------------------------
# ---------------------------------------------------------------------------------------------------------------
# | t= 41700, PASS: | pstrb = 4'b1111 | register addr = 12h010 | write 32'h55555555 | read EXP: 32'h55555555, ACT: 32'h55555555 |
# ---------------------------------------------------------------------------------------------------------------
# ---------------------------------------------------------------------------------------------------------------
# | t= 43500, PASS: | pstrb = 4'b1111 | register addr = 12h010 | write 32'haaaaaaaa | read EXP: 32'haaaaaaaa, ACT: 32'haaaaaaaa |
# ---------------------------------------------------------------------------------------------------------------
# ---------------------------------------------------------------------------------------------------------------
# | t= 45300, PASS: | pstrb = 4'b1111 | register addr = 12h010 | write 32'ha55aa55a | read EXP: 32'ha55aa55a, ACT: 32'ha55aa55a |
# ---------------------------------------------------------------------------------------------------------------
# ---------------------------------------------------------------------------------------------------------------
# | t= 47100, PASS: | pstrb = 4'b1111 | register addr = 12h014 | write 32'h00000000 | read EXP: 32'h00000000, ACT: 32'h00000000 |
# ---------------------------------------------------------------------------------------------------------------
# ---------------------------------------------------------------------------------------------------------------
# | t= 48900, PASS: | pstrb = 4'b1111 | register addr = 12h014 | write 32'hffffffff | read EXP: 32'h00000001, ACT: 32'h00000001 |
# ---------------------------------------------------------------------------------------------------------------
# ---------------------------------------------------------------------------------------------------------------
# | t= 50700, PASS: | pstrb = 4'b1111 | register addr = 12h014 | write 32'h55555555 | read EXP: 32'h00000001, ACT: 32'h00000001 |
# ---------------------------------------------------------------------------------------------------------------
# ---------------------------------------------------------------------------------------------------------------
# | t= 52500, PASS: | pstrb = 4'b1111 | register addr = 12h014 | write 32'haaaaaaaa | read EXP: 32'h00000000, ACT: 32'h00000000 |
# ---------------------------------------------------------------------------------------------------------------
# ---------------------------------------------------------------------------------------------------------------
# | t= 54300, PASS: | pstrb = 4'b1111 | register addr = 12h014 | write 32'ha55aa55a | read EXP: 32'h00000000, ACT: 32'h00000000 |
# ---------------------------------------------------------------------------------------------------------------
# ---------------------------------------------------------------------------------------------------------------
# | t= 56100, PASS: | pstrb = 4'b1111 | register addr = 12h018 | write 32'h00000000 | read EXP: 32'h00000000, ACT: 32'h00000000 |
# ---------------------------------------------------------------------------------------------------------------
# ---------------------------------------------------------------------------------------------------------------
# | t= 57900, PASS: | pstrb = 4'b1111 | register addr = 12h018 | write 32'hffffffff | read EXP: 32'h00000000, ACT: 32'h00000000 |
# ---------------------------------------------------------------------------------------------------------------
# ---------------------------------------------------------------------------------------------------------------
# | t= 59700, PASS: | pstrb = 4'b1111 | register addr = 12h018 | write 32'h55555555 | read EXP: 32'h00000000, ACT: 32'h00000000 |
# ---------------------------------------------------------------------------------------------------------------
# ---------------------------------------------------------------------------------------------------------------
# | t= 61500, PASS: | pstrb = 4'b1111 | register addr = 12h018 | write 32'haaaaaaaa | read EXP: 32'h00000000, ACT: 32'h00000000 |
# ---------------------------------------------------------------------------------------------------------------
# ---------------------------------------------------------------------------------------------------------------
# | t= 63300, PASS: | pstrb = 4'b1111 | register addr = 12h018 | write 32'ha55aa55a | read EXP: 32'h00000000, ACT: 32'h00000000 |
# ---------------------------------------------------------------------------------------------------------------
# ---------------------------------------------------------------------------------------------------------------
# | t= 65100, PASS: | pstrb = 4'b1111 | register addr = 12h01c | write 32'h00000000 | read EXP: 32'h00000000, ACT: 32'h00000000 |
# ---------------------------------------------------------------------------------------------------------------
# ---------------------------------------------------------------------------------------------------------------
# | t= 66900, PASS: | pstrb = 4'b1111 | register addr = 12h01c | write 32'hffffffff | read EXP: 32'h00000001, ACT: 32'h00000001 |
# ---------------------------------------------------------------------------------------------------------------
# ---------------------------------------------------------------------------------------------------------------
# | t= 68700, PASS: | pstrb = 4'b1111 | register addr = 12h01c | write 32'h55555555 | read EXP: 32'h00000001, ACT: 32'h00000001 |
# ---------------------------------------------------------------------------------------------------------------
# ---------------------------------------------------------------------------------------------------------------
# | t= 70500, PASS: | pstrb = 4'b1111 | register addr = 12h01c | write 32'haaaaaaaa | read EXP: 32'h00000000, ACT: 32'h00000000 |
# ---------------------------------------------------------------------------------------------------------------
# ---------------------------------------------------------------------------------------------------------------
# | t= 72300, PASS: | pstrb = 4'b1111 | register addr = 12h01c | write 32'ha55aa55a | read EXP: 32'h00000000, ACT: 32'h00000000 |
# ---------------------------------------------------------------------------------------------------------------
# ---------------------------------------------------------------------------------------------------------------
# | t= 74100, PASS: | pstrb = 4'b1111 | register addr = 12h01c | write 32'h00000000 | read EXP: 32'h00000000, ACT: 32'h00000000 |
# ---------------------------------------------------------------------------------------------------------------
# ---------------------------------------------------------------------------------------------------------------
# | t= 75900, PASS: | pstrb = 4'b1111 | register addr = 12h01c | write 32'hffffffff | read EXP: 32'h00000003, ACT: 32'h00000003 |
# ---------------------------------------------------------------------------------------------------------------
# ---------------------------------------------------------------------------------------------------------------
# | t= 77700, PASS: | pstrb = 4'b1111 | register addr = 12h01c | write 32'h55555555 | read EXP: 32'h00000003, ACT: 32'h00000003 |
# ---------------------------------------------------------------------------------------------------------------
# ---------------------------------------------------------------------------------------------------------------
# | t= 79500, PASS: | pstrb = 4'b1111 | register addr = 12h01c | write 32'haaaaaaaa | read EXP: 32'h00000000, ACT: 32'h00000000 |
# ---------------------------------------------------------------------------------------------------------------
# ---------------------------------------------------------------------------------------------------------------
# | t= 81300, PASS: | pstrb = 4'b1111 | register addr = 12h01c | write 32'ha55aa55a | read EXP: 32'h00000000, ACT: 32'h00000000 |
# ---------------------------------------------------------------------------------------------------------------
# ---------------------------------------------------------------------------------------------------------------
# | t= 83100, PASS: | pstrb = 4'b1111 | register addr = 12h00c | write 32'h55555555 | read EXP: 32'h55555555, ACT: 32'h55555555 |
# ---------------------------------------------------------------------------------------------------------------
# ---------------------------------------------------------------------------------------------------------------
# | t= 84900, PASS: | pstrb = 4'b1111 | register addr = 12h020 | write 32'haaaaaaaa | read EXP: 32'h00000000, ACT: 32'h00000000 |
# ---------------------------------------------------------------------------------------------------------------
# ---------------------------------------------------------------------------------------------------------------
# | t= 86700, PASS: | pstrb = 4'b1111 | register addr = 12h00c | write 32'haaaaaaaa | read EXP: 32'haaaaaaaa, ACT: 32'haaaaaaaa |
# ---------------------------------------------------------------------------------------------------------------
# ==============================================
# =========== PASS: READ/WRITE VALUE ===========
# ==============================================
# ** Note: $finish    : ../tb/test_bench.v(311)
#    Time: 86800 ns  Iteration: 0  Instance: /test_bench
# End time: 20:36:51 on Jun 09,2025, Elapsed time: 0:00:01
# Errors: 0, Warnings: 1
